20

3
A
B
C
1 2 3
1 2 3
2 1 3
2 1 3
3 2 1

2
Driptesh
Dripset
1 2
2 1

4
Apple
Banana
Pear
Choccy shake
1 2 3 4
4 2 3 1
4 2 3 1
4 2 1 3

3
North
South
West
1 2 3
3 2 1
2 3 1
2 3 1
3 2 1

3
Tie
Break
Er
2 3 1
2 3 1
3 1 2
3 1 2
1 2 3
1 2 3

3
Tie
Break
ErTwo
2 3 1
2 3 1
3 1 2
1 2 3
1 2 3

3
Tie
Break
ErThree
2 3 1
2 3 1
1 2 3
1 2 3

3
Tie
Break
ErFour
2 3 1
2 3 1
2 3 1
3 1 2
3 1 2
3 1 2
1 2 3
1 3 2

3
Tie
Break
ErFive
2 3 1
2 3 1
2 3 1
3 1 2
3 1 2
3 1 2
1 2 3
1 2 3
1 2 3

2
Aman Hambleton
Eric Hansen
1 2
1 2
1 2
2 1
2 1
2 1
2 1
2 1
1 2
1 2

10
Adelle
Belle
Darnell
Giselle
Manuel
Michelle
Rachelle
Raquel
Marcel
Danielle
4 8 7 2 5 9 6 3 1 10
8 2 10 5 1 9 3 6 7 4
3 8 2 7 9 1 5 10 6 4
5 6 9 2 10 7 8 1 4 3
9 1 6 8 4 5 10 3 7 2
6 3 1 10 7 9 4 2 5 8
1 2 3 4 5 6 7 8 9 10

10
Adelle
Belle
Darnell
Giselle
Manuel
Michelle
Rachelle
Raquel
Marcel
Danielle
9 1 5 8 2 10 7 6 3 4
3 9 2 6 1 4 7 10 5 8
2 5 9 10 3 8 7 4 1 6
1 2 3 4 5 6 7 8 9 10

10
Adelle
Belle
Darnell
Giselle
Manuel
Michelle
Rachelle
Raquel
Marcel
Danielle
3 9 1 7 8 10 4 5 2 6
7 8 4 6 1 2 10 3 5 9
6 1 10 9 4 5 2 7 3 8
9 4 2 8 10 3 5 6 7 1
8 10 5 1 2 7 3 9 6 4
1 2 3 4 5 6 7 8 9 10

10
Adelle
Belle
Darnell
Giselle
Manuel
Michelle
Rachelle
Raquel
Marcel
Danielle
3 1 9 7 5 2 4 6 10 8
9 3 10 7 5 1 4 2 8 6
3 1 9 7 5 2 4 6 10 8
9 3 10 4 5 1 7 2 8 6
10 9 8 7 5 3 4 1 6 2
8 10 6 4 5 9 7 3 2 1
6 8 2 7 5 10 4 9 1 3
2 6 1 4 5 8 7 10 3 9

10
Adelle
Belle
Darnell
Giselle
Manuel
Michelle
Rachelle
Raquel
Marcel
Danielle
8 10 6 4 1 7 5 2 9 3
2 3 7 4 8 5 1 10 9 6
10 6 5 4 2 1 8 3 9 7
7 1 2 4 6 10 3 5 9 8
5 8 10 4 7 3 6 1 9 2
1 2 3 4 5 6 7 8 9 10
8 10 6 4 1 7 5 2 9 3
2 3 7 4 8 5 1 10 9 6
10 6 5 4 2 1 8 3 9 7
3 7 1 4 10 8 2 6 9 5

10
Adelle
Belle
Darnell
Giselle
Manuel
Michelle
Rachelle
Raquel
Marcel
Danielle
4 2 6 1 9 7 5 8 3 10
2 5 7 8 4 10 3 1 9 6
1 2 9 8 3 5 10 7 4 6
7 9 10 3 8 4 1 2 5 6
4 6 3 7 9 1 2 8 10 5
3 8 6 2 10 4 9 5 1 7
4 7 2 3 8 9 5 10 6 1

10
Adelle
Belle
Darnell
Giselle
Manuel
Michelle
Rachelle
Raquel
Marcel
Danielle
3 8 6 4 1 5 10 2 7 9
2 6 10 1 4 7 3 8 5 9
4 5 3 10 6 8 9 7 2 1
6 8 2 1 9 7 10 4 5 3
8 10 7 4 6 3 5 1 9 2
4 6 5 2 7 9 3 8 1 10
3 10 2 6 7 5 9 1 8 4
1 2 9 7 6 8 3 10 5 4
6 8 5 4 3 10 7 1 2 9
1 6 2 4 7 8 10 5 3 9

10
Adelle
Belle
Darnell
Giselle
Manuel
Michelle
Rachelle
Raquel
Marcel
Danielle
2 6 7 3 10 5 1 8 9 4
8 7 1 10 3 9 2 6 5 4
2 4 10 7 3 1 9 5 6 8
10 5 4 9 6 2 3 8 1 7
1 10 6 8 5 7 3 2 4 9
3 5 2 4 9 8 10 6 1 7
9 8 1 7 10 6 4 3 5 2

10
Adelle
Belle
Darnell
Giselle
Manuel
Michelle
Rachelle
Raquel
Marcel
Danielle
5 7 1 4 2 10 6 9 8 3
9 5 8 4 6 7 10 1 2 3
5 10 7 1 9 3 2 4 6 8
1 9 2 8 7 6 3 5 4 10
8 4 5 6 2 3 9 1 10 7
6 2 9 7 5 10 3 8 1 4
8 6 1 7 3 2 10 9 5 4

10
Adelle
Belle
Darnell
Giselle
Manuel
Michelle
Rachelle
Raquel
Marcel
Danielle
2 3 9 7 6 8 1 5 4 10
6 8 4 10 1 5 7 2 3 9
2 4 7 1 10 3 6 8 5 9
