21

4
Sosa !
Whitaker
Faulkner
Blankenship
1 4 2 3
1 3 4 2
1 2 3 4
4 3 2 1
4 3 2 1
4 3 1 2
1 2 3 4

10
Sosa
Whitaker
Faulkner
Blankenship
Rodgers
Galindo
Roth
Webster
Franklin !
Simon Webb
9 6 8 4 3 7 1 5 10 2
1 4 9 5 2 3 10 7 8 6
9 10 7 2 4 8 1 5 3 6

2
Sosa !
Whitaker
1 2
1 2
2 1
1 2

10
Sosa
Whitaker
Faulkner
Blankenship
Rodgers
Galindo
Roth
Webster
Franklin
Webb !
10 3 1 2 8 5 4 9 6 7
10 3 9 7 8 6 4 2 1 5

5
Sosa
Whitaker
Faulkner
Blankenship
Rodgers !
5 1 4 3 2
2 4 3 5 1
5 2 3 4 1

1
Sosa !
1
1
1
1
1

1
Sosa !
1
1
1
1
1
1
1
1
1
1

2
Sosa
Whitaker !
2 1
2 1
1 2
2 1
2 1
1 2
1 2
1 2
2 1
2 1

2
Sosa
Whitaker !
2 1

4
Sosa !
Whitaker !
Faulkner
Blankenship !
2 4 1 3
4 2 1 3
1 4 3 2

7
Sosa
Whitaker
Faulkner
Blankenship !
Rodgers
Galindo
Roth
7 1 4 6 5 2 3
1 5 2 6 4 7 3
6 2 3 7 4 5 1
4 2 6 5 7 1 3
7 1 6 4 2 3 5
7 4 5 6 1 2 3
6 2 4 3 7 1 5
5 4 6 1 2 3 7
3 1 5 4 6 2 7
4 2 3 7 6 5 1

10
Sosa !
Whitaker
Faulkner
Blankenship
Rodgers
Galindo !
Roth
Webster
Franklin
Webb
6 9 8 2 7 4 10 3 1 5
10 9 7 4 8 5 2 6 3 1
7 4 9 5 3 1 6 2 8 10
1 9 7 3 2 10 6 4 5 8
9 3 5 8 1 6 4 7 10 2
6 3 4 10 5 1 2 7 9 8
4 8 9 6 10 5 1 2 3 7
1 4 7 2 6 5 3 8 10 9

4
Sosa !
Whitaker !
Faulkner !
Blankenship !
1 2 4 3
3 4 2 1
2 3 4 1
4 2 3 1

5
Sosa !
Whitaker
Faulkner
Blankenship
Rodgers
5 1 3 2 4
1 5 4 3 2
2 1 4 3 5
1 2 4 3 5

8
Sosa
Whitaker
Faulkner
Blankenship
Rodgers !
Seth
Roth
Webster !
4 5 7 8 3 2 6 1
5 7 8 1 6 4 3 2
8 4 2 3 6 1 5 7
8 3 5 1 4 7 6 2
8 1 7 2 3 4 5 6
2 1 3 7 6 5 4 8
5 6 3 2 8 4 1 7
1 4 2 7 6 8 3 5

4
Sosa
Whitaker !
Faulkner
Blankenship
2 3 4 1
4 1 3 2
4 1 3 2
3 1 2 4
3 2 1 4
4 1 3 2
2 3 1 4
1 2 4 3
2 1 4 3

10
Sosa
Whitaker
Faulkner
Blankenship
Rodgers
Galindo
Roth
Webster
Franklin !
Webb
9 7 10 4 2 6 8 3 1 5

6
Sosa
Whitaker
Faulkner
Blankenship !
Rodgers
Galindo
4 6 3 5 2 1

2
Sosa
Whitaker !
2 1
1 2
1 2
2 1
2 1
1 2
2 1
2 1

3
Sosa
Whitaker
Faulkner !
2 3 1
3 1 2
2 3 1
3 1 2
3 1 2
3 1 2
1 2 3

4
Sosa !
Whitaker !
Faulkner !
Blankenship !
1 2 4 3
2 3 4 1
4 1 2 3
3 4 2 1
