20

1
Jolin
1

2
Jack
Dack
1 2
1 2

2
Abigail
Alexis
1 2
2 1

3
Tim
Ian
Luke
1 2 3
1 2 3
2 3 1
2 3 1
1 2 3

3
Tim
Ian
Luke
1 2 3
1 2 3
1 2 3
2 3 1
2 1 3
3 2 1

4
Cyan
Magenta
Yellow
Black
1 2 3 4
1 2 3 4
3 2 4 1
2 3 4 1
2 3 4 1
2 3 1 4
2 3 4 1
3 2 4 1

4
Cyan
Magenta
Yellow
Black
2 4 3 1
2 1 4 3
2 4 1 3
2 4 3 1
3 2 4 1
3 1 4 2

2
Daniel
Jason
2 1
1 2

7
Janet
Natalie
Amber
Zachary
Terry
Denise
Donald
7 5 4 1 2 6 3
4 5 7 1 2 6 3

9
Thomas
Roger
Janet
Harold
Joyce
Arthur
Isabella
Ronald
Christian
8 9 6 2 4 7 5 3 1
8 3 7 5 2 1 9 6 4
5 3 9 7 6 2 8 1 4
5 9 2 4 6 8 7 1 3
8 9 6 2 4 7 5 3 1
5 3 2 4 8 9 1 6 7

12
Jesse
Emily
Emma
Alexander
Eugene
George
Brandon
Joan
Deborah
Marilyn
Catherine
Lori
12 10 6 2 11 7 4 3 9 8 1 5
5 4 12 3 11 6 7 9 8 10 1 2
7 3 4 2 6 8 12 1 10 5 9 11
7 9 8 5 11 6 1 10 2 12 3 4
3 7 1 10 5 2 8 6 4 9 11 12
10 12 1 9 8 4 2 5 7 11 3 6

8
Dodonko
Yuiyui
Nerimaki
Arue
Komekko
Funifura
Megumin
Yunyun
3 5 2 8 7 6 4 1
4 6 1 8 7 3 5 2
2 6 8 4 1 3 5 7
8 3 4 6 5 7 2 1
3 8 5 1 2 6 7 4
4 8 7 3 6 1 2 5
7 3 4 8 2 5 1 6
6 4 8 7 5 2 3 1
7 5 1 4 3 8 2 6
7 2 6 1 5 8 4 3
8 6 3 5 1 4 7 2
1 2 4 8 3 7 6 5
8 7 1 4 6 2 5 3
8 5 4 3 2 6 1 7
3 6 1 4 8 7 2 5
3 7 1 2 5 8 6 4
2 7 8 5 6 4 3 1
3 8 7 2 6 5 1 4
6 5 1 8 4 7 2 3
7 3 8 2 4 6 5 1

12
Robert
Eugene
Sharon
Kimberly
Terry
Michael
Brenda
Gary
Jeffrey
Timothy
Philip
Sandra
2 1 4 6 10 7 5 8 9 3 11 12
4 12 9 7 3 5 10 2 1 6 8 11
3 7 11 8 1 2 9 12 6 4 5 10

6
Thomas
Karen
William
George
Gregory
Anna
2 3 6 5 4 1
4 6 3 1 5 2
5 4 2 6 1 3
4 5 2 1 6 3
4 3 5 1 6 2
4 6 5 2 3 1
6 5 1 2 4 3
2 5 4 6 1 3
2 1 4 6 3 5

5
Alexis
Isabella
Gregory
Kyle
Michael
3 2 5 4 1
4 1 2 5 3
3 1 4 5 2
2 5 4 1 3
3 5 4 2 1
5 3 4 2 1
4 1 2 5 3
3 4 5 2 1
4 5 1 3 2
4 2 1 5 3
1 3 2 4 5

8
Joan
Samuel
Donna
Emma
Douglas
Linda
Deborah
Carol
2 1 7 3 4 6 8 5
5 2 1 7 4 6 8 3
2 7 5 8 6 3 4 1
3 7 6 1 8 5 4 2
3 8 1 2 5 6 7 4

9
Albert
Mark
Beverly
Bobby
Olivia
Betty
Melissa
George
Kayla
4 7 5 3 2 8 6 1 9
7 8 3 4 5 9 6 2 1
8 3 4 2 6 7 9 1 5
8 9 6 4 7 3 1 2 5
3 1 9 2 8 4 5 7 6
2 7 9 8 6 1 3 5 4
1 3 6 8 4 5 2 7 9
5 6 7 1 8 2 9 3 4
2 1 8 7 5 4 3 6 9
2 7 1 9 5 6 4 8 3

8
Jessica
Danielle
Nicholas
Jesse
Raymond
Teresa
Vincent
Nicole
3 8 1 2 5 6 7 4
2 7 5 1 3 6 8 4
8 3 1 7 5 4 2 6
4 1 3 5 7 8 2 6
5 6 8 3 7 4 1 2
7 8 1 2 5 6 3 4
4 2 8 3 5 6 1 7
5 8 3 4 6 7 1 2
5 8 2 3 6 7 4 1
3 8 1 2 5 6 7 4

7
Lawrence
Shirley
Jason
Elizabeth
Bryan
Charles
Joan
3 7 5 4 1 2 6
2 1 3 4 6 7 5
6 7 1 3 5 2 4
2 4 1 3 7 6 5
1 3 2 4 7 6 5
6 4 7 1 3 5 2
7 4 2 1 3 6 5
7 4 3 6 5 2 1
4 2 6 5 3 7 1

8
Brian
Henry
Brandon
Carolyn
Edward
Diana
Joan
Sharon
2 3 5 4 8 7 1 6
7 1 2 4 3 8 5 6
1 2 4 5 8 7 3 6
1 5 4 3 7 2 6 8
