20

2
Ellie Randolph
Alejandra Murphy
1 2
1 2
2 1

2
Tara Townsend
Kole Conley
1 2
1 2

1
Devyn Hancock
1
1
1
1

10
Russell Guzman
Jayda Small
Kira Whitney
Lillianna Clayton
Catalina Moss
Kolten Miranda
Alejandra Murphy
Travis Santana
Princess Santiago
Martin Brewer
10 6 8 2 7 1 3 4 9 5
1 10 8 2 7 3 6 5 4 9
7 5 8 1 6 3 4 2 9 10
9 4 6 2 3 1 10 7 8 5
2 7 3 10 6 8 9 4 1 5
10 8 4 5 2 3 9 6 1 7
2 6 3 10 5 7 8 4 1 9

1
Zack Ali
1

2
Jayda Small
Franco Bentley
1 2
1 2
1 2
2 1
1 2
1 2
2 1
2 1
2 1

6
Ronan Conway
Trinity Coleman
Nash Pierce
Kira Whitney
Ronnie Ho
Paris Clay
1 6 2 5 3 4
1 3 2 4 6 5
5 3 4 2 1 6
6 2 5 4 3 1
2 3 1 6 5 4
4 2 3 5 6 1
5 1 6 2 4 3

3
Devyn Hancock
Casey Goodman
Brielle Gonzales
3 1 2
1 2 3
2 3 1
2 1 3
1 3 2
1 3 2
2 1 3

4
Paris Clay
Dahlia Ho
Clare Logan
Zack Sullivan
1 2 4 3
1 4 3 2
1 4 2 3
2 3 4 1
4 2 3 1
3 4 1 2
3 2 4 1

9
Jaydan Yang
Lorenzo Finley
Jasmine House
Casey Goodman
Mya Vazquez
Margaret Paul
Kolten Miranda
Evie Mccullough
Abril Strickland
4 3 1 2 8 6 5 9 7
8 2 3 1 7 6 4 9 5
2 1 6 3 4 5 7 8 9
8 2 3 9 7 5 4 6 1
9 5 6 7 2 1 4 8 3
8 3 9 7 5 6 1 4 2
2 5 8 6 3 9 4 7 1
5 3 6 7 8 2 4 9 1
7 3 2 9 8 5 1 6 4
1 2 4 8 7 5 9 3 6

5
Diya Wheeler
Cheyanne Ayers
Yamilet Armstrong
Sanaa Mcintyre
Jamiya Rush
4 5 1 3 2
2 1 5 4 3
4 3 2 1 5
2 1 5 3 4
1 4 5 3 2
4 1 3 2 5
5 1 2 4 3
5 4 3 1 2
3 1 5 2 4

4
Margaret Paul
Guillermo Pennington
Jasmine House
Ruth Armstrong
1 3 2 4
1 4 2 3
2 4 1 3
4 2 3 1
2 3 1 4
4 2 3 1
3 1 4 2

6
Franco Bentley
Lillianna Clayton
Kayleigh Huerta
Jamiya Rush
Yamilet Armstrong
Mya Vazquez
2 6 5 4 1 3

6
Sanaa Mcintyre
Mikaela Wilkins
Dahlia Ho
Andres Hinton
Jadon Wang
Conor Rowland
2 1 3 4 5 6
5 4 3 2 6 1
2 6 4 1 5 3
4 5 3 1 2 6
5 2 6 1 3 4
1 6 2 3 5 4
3 4 6 1 5 2
5 2 1 3 4 6
5 6 4 1 3 2
3 5 1 2 6 4

5
Kaydence Mcpherson
Madisyn Durham
Ruth Armstrong
Cordell Moon
Catalina Moss
2 5 1 4 3
5 3 4 1 2
1 3 4 5 2
4 5 3 2 1
5 1 3 4 2
1 2 5 3 4
1 2 3 4 5
5 1 2 4 3
2 5 3 1 4
4 1 5 3 2

4
Quinton Nash
Yamilet Johns
Trinity Coleman
Cordell Moon
2 4 1 3
4 3 2 1
3 4 1 2
1 2 3 4
3 2 4 1
1 2 3 4
1 2 3 4
4 2 1 3
1 3 2 4

5
Rishi Meza
Samantha Jenkins
Mackenzie Hodge
Evie Mccullough
Chelsea Cooley
4 2 1 3 5
4 1 3 5 2
1 2 3 5 4
5 1 4 2 3
5 3 2 1 4

5
Malaki Lambert
Lexie Castaneda
Diya Wheeler
Devyn Hancock
Xiomara Graham
5 3 2 4 1

3
Franco Bentley
Mya Vazquez
Guillermo Pennington
2 1 3

3
Russell Guzman
Rylee Snyder
Ronan Conway
2 3 1
1 3 2
1 3 2
1 3 2
2 1 3
2 3 1
1 2 3
3 1 2
