20

1
Lan
1

2
Pan
Wan
1 2
2 1

6
Can
Van
Dan
Ran
Fan
Han
3 2 6 1 4 5
2 5 1 4 6 3
6 1 4 5 3 2
1 3 6 2 5 4
4 5 2 3 1 6
6 5 1 3 4 2
2 4 6 1 5 3
5 4 2 1 3 6
1 6 5 2 4 3
3 1 5 2 6 4

3
Tan
Yan
Ian
2 1 3
1 3 2
3 2 1
2 3 1

3
Qan
Oan
Aan
2 1 3
1 3 2
3 2 1
2 3 1
3 1 2
1 2 3

4
San
Fan
Gan
Han
2 3 1 4
3 1 2 4
1 4 3 2
2 4 3 1

2
Jan
Kan
1 2
1 2
2 1
2 1
1 2
2 1

5
Lan
Zan
Xan
Can
Van
2 1 4 5 3
4 1 2 5 3
5 4 1 2 3
3 5 2 1 4
1 5 4 2 3
3 2 4 5 1

3
Ban
Nan
Man
2 3 1
1 3 2
3 2 1
2 1 3
1 2 3
3 1 2
2 1 3
3 1 2
1 3 2
3 2 1

3
Qab
Wab
Eab
2 1 3
1 2 3
3 1 2
2 1 3
2 3 1
3 1 2
3 2 1
2 3 1

4
Rab
Yab
Uab
Iab
1 4 2 3
3 1 4 2
1 3 4 2
1 4 2 3
3 1 4 2
1 3 4 2
2 4 3 1
2 4 1 3
1 4 2 3

4
Oab
Pab
Aab
Sab
2 4 1 3
1 4 2 3
3 1 4 2
1 3 4 2
2 4 3 1

4
Dab
Fab
Gab
Hab
2 4 1 3
1 4 2 3
3 1 4 2
1 3 4 2
2 4 3 1
2 3 1 4
3 1 2 4
1 4 3 2
2 4 3 1

2
Jab
Kab
1 2
1 2
1 2
1 2
1 2
1 2
1 2
1 2
1 2
1 2
1 2
1 2

1
Lab
1
1
1
1
1
1
1
1
1
1

5
Zab
Xab
Cab
Vab
Bab
5 4 2 1 3
2 1 4 5 3
3 5 1 2 4
4 3 2 5 1
1 5 3 2 4
3 1 2 4 5
2 3 5 1 4

2
Nab
Mab
1 2
2 1
1 2
2 1
1 2
2 1
1 2
2 1
1 2
2 1
1 2
2 1

5
Qun
Wun
Eun
Run
Tun
4 3 2 5 1
1 5 3 2 4
3 1 2 4 5
2 3 5 1 4
5 4 1 2 3
3 5 2 1 4
1 5 4 2 3
3 2 4 5 1

3
Yun
Uun
Iun
2 1 3
1 2 3
3 1 2
2 1 3
3 1 2
1 3 2
2 1 3
1 2 3
3 1 2
2 1 3
3 1 2

9
Oun
Pun
Aun
Sun
Fun
Gun
Hun
Jun
Kun
7 2 8 1 4 6 9 5 3
5 8 6 2 1 7 4 3 9
1 5 9 7 6 8 2 3 4
3 7 1 8 5 6 9 2 4
8 2 7 5 1 6 3 4 9
4 9 3 7 6 8 1 2 5
6 4 1 8 5 7 2 9 3
9 4 7 1 6 3 2 8 5
2 8 6 9 3 7 1 5 4
1 4 7 8 2 6 5 9 3
