20

1
Vincent Chen
1

2
Vincent
Chen
1 2
2 1

2
Vincent
Chen
1 2
1 2

3
Vin
Cent
Chen
1 2 3
2 1 3
3 1 2
1 2 3
2 1 3
3 1 2
1 2 3
2 1 3
3 1 2
1 2 3
2 1 3
3 1 2
1 2 3
2 1 3
3 1 2
1 2 3
2 1 3
3 1 2
1 2 3
2 1 3
3 1 2
1 2 3
2 1 3
3 1 2
1 2 3
2 1 3
3 1 2
1 2 3
2 1 3
3 1 2
1 2 3
2 1 3
3 1 2

3
Vin
Cent
Chen
1 2 3
1 3 2
2 3 1
2 1 3
3 1 2

3
Vin
Cent
Chen
1 2 3
1 3 2
1 2 3
1 3 2
2 3 1

3
Vin
Cent
Chen
1 2 3

3
Vin
Cent
Chen
3 2 1

3
Vin
Cent
Chen
2 1 3

10
a
b
c
d
e
f
g
h
i
j
7 8 9 10 1 2 3 4 5 6

4
Alice
Bob
Charlie
David
4 2 3 1
4 3 1 2
4 2 1 3
3 2 1 4
1 3 4 2
2 1 3 4
3 2 4 1
3 4 2 1
3 4 1 2
3 4 2 1
2 3 4 1
1 4 2 3
4 2 3 1

2
Alice
Bob
1 2
1 2
1 2
2 1
2 1
2 1

5
a
b
c
d
e
1 2 3 4 5
2 3 4 5 1
3 4 5 1 2
4 5 1 2 3
5 1 2 3 4

2
Raze
Viper
2 1
2 1
1 2

2
!
$
2 1
2 1

3
John Doe
Jane Smith
Sirhan Sirhan
1 2 3
2 1 3
2 3 1
1 2 3
3 1 2

3
John Doe
Jane Smith
Sirhan Sirhan
1 2 3
2 1 3
2 3 1
1 2 3

3
John Doe
Jane Smith
Sirhan Sirhan
1 2 3
2 1 3
2 3 1

3
John Doe
Jane Smith
Sirhan Sirhan
1 2 3
2 1 3

3
John Doe
Jane Smith
Sirhan Sirhan
1 2 3
