20

2
 CSBHCGHZW
UYMW BGTHLSZV
1 2
1 2

8
LGMYLCSOVITRQAIXIJRB POCCMRMJ
UT
EWUFIPKUYTPTO
YGAXUXREUUHSISEUYWGSAVE 
PBCPP
LMPAZEWUZA AXMAQXBTQSQQTJSPMK
NHLFPBJXFZWOCHSSLZQZVHTW
AWJNHFJSGNEYSHK
4 5 6 7 1 3 8 2
5 3 6 7 2 4 1 8
4 6 8 5 1 7 3 2
4 7 8 1 6 5 3 2
7 1 5 4 2 3 8 6
2 4 3 6 8 1 7 5
2 6 8 7 1 3 4 5
5 7 2 1 4 6 3 8

3
CCDGRSDHP NDFPL D
OZAW
BZRW RGXOGHAJ A
1 3 2
2 3 1
2 3 1

7
DJAIIX
JNBTDXZCZXC
FPJXRQCD
F WOTADWMMKGC  OPQ
KA
HYCCP XPLWRPCKI
F MTZVBOVPZKLDTWIXFUWXJBCREBDS
1 2 4 5 3 7 6
1 3 2 7 5 6 4
3 7 4 6 1 2 5
3 7 2 4 5 1 6
5 6 4 1 7 3 2
6 4 7 2 3 1 5
6 2 3 7 5 1 4

10
QJUHAULCOXZQXNFJWVGHLPSGMYZC
EXRW AUCDVZCYBEV
MASKPIW
 BXVSWCVH
TJSXMEZPDYZRQEAKGOSDJHRFUQT 
GOBSHZX
PAUHCKGZGWEZEHNKAUXEKTN JLWEE
ZY
DYRJIHBRKANVWQOSFIB
SSAPMPCHJ
9 3 4 10 7 8 5 1 6 2
6 3 2 7 8 1 10 9 4 5
7 2 8 4 1 9 10 6 5 3
7 8 6 9 10 2 1 4 3 5
7 2 9 10 6 3 4 8 1 5
1 3 10 8 4 7 9 2 5 6
9 3 6 5 10 7 2 1 4 8
1 8 7 10 3 5 2 9 4 6
9 2 7 5 6 1 8 3 10 4
10 4 9 7 1 8 3 2 5 6

5
PCDYUABVOKFVW
OVIYEQZO
DXXCQLIMYGYUQPPPRGEYTAZD
HIWOVQ
GNEIZLJSUF
3 2 5 1 4
1 3 2 5 4
2 4 3 1 5
3 1 5 2 4
3 2 4 5 1

6
OVLXTLWPMBQONIKPQVPJKDBNJU
UPZIARWAIGPQIEYZNTF
 VUZFJXKV
TWMGRENBD KYQE
VETGTMXJYZQFWLTF BNQ
XVZITQR
5 4 1 3 6 2
2 1 4 6 5 3
3 5 4 6 2 1
6 1 2 5 4 3
3 2 6 5 4 1
6 2 5 1 4 3

8
VC BQJYAZHFLASFCGGBK UGEPG
UEPVQKHWIMJYTVX
  EFQUTMGMLGRPYM
GQDIFTJMRWXG
YQUJKTG JEB MPOESI LZDN
WVBRQLNWGTEHHWXILTMKF
BDEHMNDJZWTDMQ LIWELELP
U
3 4 8 2 1 5 6 7
6 8 4 5 7 1 2 3
1 4 2 7 3 5 6 8
2 3 6 5 8 7 1 4
7 1 4 6 2 5 8 3
5 8 6 7 4 2 3 1
2 5 4 8 7 6 1 3
2 5 4 7 6 1 8 3

3
UKOYTRWFFDZVCHXVNIHNYK
XEENVZTQFCG  NMURPFVJVNYSWLO
GAQPSFSU
1 3 2
1 3 2
2 1 3

6
NBHKVGKK
DQEEWVY
LPEDHCRMYERWEPZFAUIRP
DXOFQCT FIBIEMQLVU
SKRBUSDV
GHRYFIGAJXMG
6 1 4 3 2 5
6 5 3 4 2 1
5 6 1 2 4 3
4 3 6 5 2 1
4 3 2 6 1 5
1 5 2 3 6 4

8
VFQRSMOBLNJLSCDRY
EHPLBEEVWLNHTZYO
XQUIUGEYYUOWLN 
DLLNYYBZQFF
KYFJX GSHGLIPHAHSIGLMYBAIN
IFLKNVTWJQSOZZFU
 N WH
MBBVDS DYUCMNWYUHTYB
6 4 7 8 2 1 5 3
2 3 8 6 4 1 5 7
8 6 5 3 7 1 4 2
7 3 6 5 2 1 8 4
1 4 2 7 6 5 8 3
6 5 3 1 2 8 7 4
2 3 1 5 7 8 6 4
8 1 5 3 6 4 7 2

5
VKLUP
IJSMNSFACEMUZFIA XTVEFUIXHIGAV
EDCR
SFDMVAXCMTBNBQ  FNVPC
ILFKZXJNYWFQNTHCNTF
5 3 2 1 4
2 5 1 3 4
1 5 2 3 4
3 5 1 4 2
3 2 1 4 5

6
QNM
RPSPCPOZVKYSAFSCQC
ICPUGITQMQHX OOLRJ
SDA
GMUJFBZYH YVVWY
KOYLVC
5 1 3 4 6 2
5 6 3 4 2 1
4 3 1 5 6 2
5 6 2 3 4 1
3 4 2 6 1 5
1 3 2 5 6 4

3
NZ AKLWUWT
THJKQKUCACZRZHPI
GYLNDEDAMCE OKSGBUQQS QVZVXOG
2 3 1
1 2 3
3 2 1

7
DVIICJXYQGEOJVHYZO JSOGFWDN
QLSMLXOWX
IAHJRKCFGOOVP PMUG
CJSDIOZO BDEDEG XRTAPWTIGNZFSA
BVGVAMVOJOHWRKRZ PLFDEA
VPYXWJXHZ AUFCUJHVINAGS
NPBCC JNRK
6 5 1 3 2 4 7
7 3 2 6 4 5 1
1 3 4 6 2 5 7
4 2 1 7 6 3 5
4 1 2 7 3 5 6
6 7 4 1 2 3 5
3 2 5 6 1 4 7

2
PASBQ QPG YSTTASKW
BJTXNWEYGUZTFKPGNNRC QRDWS
2 1
2 1

4
MVRCBDSXPVD G EORDE XIC
LNKJGLXP
BXNFNPKO HFQY
O QSYPPBZP DPDYOFPLESEDEGVEXJ
3 4 1 2
2 3 1 4
3 4 1 2
3 1 4 2

1
PWY
1

9
WNXTZWZDSAZFH PF
EHFRZJWARDJHPIBOESGOEBNFYOK LY
YNWKV
JUWEZG
RWHMWSSGFCMYA TJ RYHXEFNAPB
CEBODZEFWHN
JR
HP
AAUZGFMCDC G
4 6 9 8 5 1 3 2 7
9 6 2 3 5 7 8 4 1
3 2 1 4 8 7 9 5 6
7 5 8 4 1 9 2 3 6
4 8 6 9 2 7 5 3 1
4 2 1 8 6 9 7 3 5
2 4 8 1 6 3 9 5 7
9 3 5 6 2 8 4 1 7
7 1 9 4 5 8 3 6 2

2
EK OKLNOKSGIPEDWYXOHWXA
MDV UPHXGX AIKYAMQKJFRXIAA
1 2
1 2
